Rk,,Age,G,GS,MP,FG,FGA,FG%,3P,3PA,3P%,2P,2PA,2P%,eFG%,FT,FTA,FT%,ORB,DRB,TRB,AST,STL,BLK,TOV,PF,PTS/G
1,Kawhi Leonard\leonaka01,29,45,45,34.6,9.4,18.3,.515,2.0,5.0,.395,7.5,13.4,.560,.568,5.1,5.8,.878,1.2,5.4,6.6,5.0,1.7,0.4,2.0,1.7,26.0
2,Paul George\georgpa01,30,42,42,33.6,8.2,17.2,.479,3.3,7.4,.441,5.0,9.8,.507,.573,3.6,4.0,.898,0.9,5.3,6.2,5.5,1.2,0.4,3.1,2.4,23.3
3,Nicolas Batum\batumni01,32,54,38,28.4,3.0,6.5,.463,1.8,4.3,.416,1.2,2.2,.556,.601,0.8,1.0,.846,0.8,4.1,4.9,2.3,1.1,0.5,0.8,1.6,8.6
4,Marcus Morris\morrima03,31,44,16,25.9,4.8,10.1,.469,2.5,5.2,.476,2.3,4.9,.461,.591,1.1,1.3,.831,0.6,3.5,4.1,1.0,0.6,0.3,0.9,2.1,13.1
5,Serge Ibaka\ibakase01,31,39,39,23.6,4.5,8.9,.507,1.0,2.8,.352,3.5,6.1,.577,.562,0.9,1.2,.822,1.7,4.9,6.7,1.7,0.2,1.2,1.1,1.9,10.9
6,Patrick Beverley\beverpa01,32,31,31,23.4,2.6,6.1,.432,1.7,4.0,.416,1.0,2.1,.462,.568,1.1,1.3,.805,0.9,2.7,3.6,2.1,0.8,0.8,0.9,3.1,8.0
7,Ivica Zubac\zubaciv01,23,57,18,22.3,3.5,5.4,.650,0.0,0.1,.000,3.5,5.4,.657,.650,1.9,2.4,.809,2.7,4.6,7.4,1.2,0.4,0.9,1.1,2.6,9.0
8,Reggie Jackson\jacksre01,30,54,32,22.3,3.8,8.3,.460,1.6,3.8,.424,2.2,4.5,.490,.557,1.1,1.3,.803,0.4,2.5,2.8,3.0,0.6,0.1,1.1,2.0,10.3
9,Lou Williams\willilo02,34,42,3,21.9,4.3,10.2,.421,1.1,2.8,.378,3.2,7.4,.437,.473,2.5,2.8,.866,0.4,1.7,2.1,3.4,0.9,0.1,1.6,1.0,12.1
10,Luke Kennard\kennalu01,24,51,13,19.6,3.1,6.4,.479,1.6,3.4,.460,1.5,3.0,.500,.601,0.4,0.5,.846,0.3,2.5,2.8,1.7,0.4,0.2,0.8,1.5,8.1
11,Terance Mann\mannte01,24,54,5,18.4,2.5,5.0,.496,0.5,1.2,.418,2.0,3.8,.522,.548,1.0,1.3,.779,0.9,2.8,3.7,1.6,0.4,0.2,0.6,1.9,6.5
12,Rajon Rondo\rondora01,34,6,0,17.2,2.3,5.2,.452,0.8,2.2,.385,1.5,3.0,.500,.532,1.0,1.0,1.000,0.8,1.2,2.0,4.7,1.0,0.2,1.8,2.2,6.5
13,Patrick Patterson\pattepa01,31,28,3,14.0,1.7,3.9,.435,0.9,2.6,.351,0.8,1.2,.618,.556,0.4,0.5,.786,0.4,1.4,1.8,0.8,0.4,0.3,0.3,1.4,4.7
14,DeMarcus Cousins\couside01,30,3,0,9.7,2.3,5.0,.467,0.3,1.0,.333,2.0,4.0,.500,.500,1.0,2.0,.500,1.0,2.0,3.0,0.7,0.7,0.0,1.7,2.0,6.0
15,Amir Coffey\coffeam01,23,38,0,8.0,1.0,2.1,.475,0.5,1.2,.435,0.5,0.9,.529,.600,0.3,0.6,.619,0.2,0.7,0.9,0.4,0.2,0.0,0.3,0.4,2.9
16,Mfiondu Kabengele\kabenmf01,23,23,0,4.1,0.4,1.4,.281,0.2,0.8,.222,0.2,0.6,.357,.344,0.2,0.3,.833,0.0,0.6,0.6,0.2,0.1,0.1,0.3,0.8,1.2
17,Daniel Oturu\oturuda01,21,21,0,3.9,0.6,1.1,.500,0.0,0.0,.000,0.6,1.1,.522,.500,0.1,0.2,.500,0.4,0.6,1.0,0.3,0.0,0.1,0.2,0.6,1.2
18,Malik Fitts\fittsma01,23,2,0,2.0,0.0,0.5,.000,0.0,0.5,.000,0.0,0.0,,.000,0.0,0.0,,0.0,1.0,1.0,0.0,0.0,0.0,0.0,1.0,0.0
