Rk,,Age,G,GS,MP,FG,FGA,FG%,3P,3PA,3P%,2P,2PA,2P%,eFG%,FT,FTA,FT%,ORB,DRB,TRB,AST,STL,BLK,TOV,PF,PTS/G
1,Shai Gilgeous-Alexander\gilgesh01,22,35,35,33.7,8.2,16.1,.508,2.0,4.9,.418,6.2,11.3,.547,.571,5.3,6.5,.808,0.5,4.2,4.7,5.9,0.8,0.7,3.0,2.0,23.7
2,Darius Bazley\bazleda01,20,39,39,30.7,4.6,11.3,.403,1.5,5.1,.293,3.1,6.3,.492,.468,1.5,2.2,.694,0.6,6.7,7.4,1.5,0.5,0.6,1.9,0.9,12.1
3,Luguentz Dort\dortlu01,21,43,43,29.5,4.6,11.7,.396,2.1,6.0,.342,2.6,5.6,.455,.485,2.0,2.7,.733,0.7,2.9,3.6,1.6,0.9,0.4,1.5,2.5,13.3
4,Al Horford\horfoal01,34,28,28,27.9,5.8,12.9,.450,2.0,5.4,.368,3.8,7.4,.510,.528,0.6,0.8,.818,1.0,5.7,6.7,3.4,0.9,0.9,1.0,1.7,14.2
5,Théo Maledon\maledth01,19,49,33,27.4,3.4,9.0,.375,1.6,4.7,.349,1.8,4.4,.402,.465,1.3,1.8,.724,0.4,3.0,3.3,3.4,0.9,0.1,2.1,2.1,9.7
6,George Hill\hillge01,34,14,14,26.4,4.4,8.6,.508,1.6,4.1,.386,2.8,4.5,.619,.600,1.5,1.8,.840,0.6,1.5,2.1,3.1,0.9,0.1,0.9,0.9,11.8
7,Ty Jerome\jeromty01,23,22,1,25.0,3.6,8.6,.423,2.1,5.3,.397,1.5,3.3,.466,.545,0.6,1.0,.667,0.5,2.5,2.9,3.5,0.5,0.2,1.3,1.9,10.0
8,Hamidou Diallo\diallha01,22,32,5,23.8,4.5,9.3,.481,0.4,1.3,.293,4.1,8.0,.512,.502,2.6,4.1,.629,1.2,4.0,5.2,2.4,1.0,0.4,1.5,2.6,11.9
9,Sviatoslav Mykhailiuk\mykhasv01,23,15,8,23.7,3.9,8.5,.453,1.6,4.5,.358,2.3,4.1,.557,.547,0.6,0.9,.692,0.6,2.5,3.1,1.7,0.9,0.1,1.5,0.6,9.9
10,Isaiah Roby\robyis01,22,45,25,23.6,3.4,6.8,.498,0.5,1.6,.329,2.9,5.2,.551,.537,1.5,2.1,.710,1.6,4.1,5.7,1.8,0.8,0.6,1.9,2.7,8.8
11,Aleksej Pokusevski\pokusal01,19,33,16,23.5,2.8,8.5,.333,1.3,4.5,.289,1.5,3.9,.385,.410,0.7,0.8,.846,0.7,4.1,4.8,1.9,0.4,1.0,1.9,1.2,7.6
12,Moses Brown\brownmo01,21,26,15,20.9,3.5,6.2,.559,0.0,0.0,,3.5,6.2,.559,.559,2.1,3.4,.618,3.4,5.3,8.7,0.2,0.6,1.1,1.0,2.0,9.0
13,Jaylen Hoard\hoardja01,21,6,0,20.8,2.5,5.8,.429,0.0,0.8,.000,2.5,5.0,.500,.429,2.3,2.8,.824,1.2,1.8,3.0,0.7,0.7,0.2,1.7,1.5,7.3
14,Kenrich Williams\willike04,26,55,10,20.7,3.1,5.8,.530,0.7,1.6,.438,2.4,4.2,.565,.590,0.5,0.9,.563,1.2,2.9,4.1,2.2,0.7,0.2,1.0,2.1,7.4
15,Tony Bradley\bradlto01,23,10,0,19.4,3.9,6.0,.650,0.0,0.2,.000,3.9,5.8,.672,.650,1.3,2.1,.619,2.4,4.8,7.2,1.1,0.3,0.9,1.3,1.7,9.1
16,Mike Muscala\muscami01,29,35,0,18.4,3.4,7.6,.446,1.9,5.3,.370,1.5,2.4,.614,.573,0.9,1.0,.917,0.5,3.2,3.8,0.8,0.2,0.3,0.6,1.5,9.7
17,Justin Jackson\jacksju01,25,33,3,16.5,2.6,6.4,.406,1.0,3.4,.306,1.6,3.1,.515,.486,0.9,1.1,.857,0.4,1.7,2.2,1.5,0.5,0.1,0.9,0.9,7.2
18,Josh Hall\halljo01,20,14,0,12.4,0.6,3.2,.200,0.1,1.4,.100,0.5,1.8,.280,.222,1.2,2.1,.586,0.1,1.9,2.0,1.3,0.0,0.0,1.1,1.5,2.6
19,Justin Robinson\robinju01,23,6,0,12.0,1.2,3.0,.389,0.7,2.2,.308,0.5,0.8,.600,.500,0.5,0.8,.600,0.2,0.8,1.0,1.3,0.3,0.0,0.2,1.2,3.5
20,Darius Miller\milleda01,30,18,0,10.9,1.2,2.7,.458,0.9,2.3,.405,0.3,0.3,.833,.635,0.7,0.7,1.000,0.1,1.2,1.3,1.2,0.7,0.3,0.4,0.7,4.1
