Rk,,Age,G,GS,MP,FG,FGA,FG%,3P,3PA,3P%,2P,2PA,2P%,eFG%,FT,FTA,FT%,ORB,DRB,TRB,AST,STL,BLK,TOV,PF,PTS/G
1,Tobias Harris\harrito02,28,49,49,33.3,7.9,15.2,.521,1.4,3.5,.407,6.5,11.7,.555,.568,3.2,3.6,.886,1.0,6.2,7.2,3.6,0.9,0.9,1.9,2.0,20.5
2,Ben Simmons\simmobe01,24,47,47,33.2,5.7,10.5,.545,0.1,0.2,.300,5.6,10.3,.550,.548,3.4,5.5,.619,1.7,6.0,7.6,7.1,1.6,0.6,3.3,3.0,14.9
3,Joel Embiid\embiijo01,26,37,37,32.1,9.4,18.1,.516,1.2,3.1,.389,8.2,15.1,.542,.549,9.9,11.6,.853,2.1,8.9,11.0,3.1,1.0,1.5,3.1,2.4,29.8
4,Seth Curry\curryse01,30,44,44,28.9,4.4,9.8,.445,2.0,4.8,.410,2.4,5.0,.480,.545,1.3,1.5,.894,0.2,1.9,2.1,2.8,0.8,0.2,1.3,1.7,12.0
5,Danny Green\greenda02,33,54,54,28.3,3.3,7.9,.422,2.6,6.2,.414,0.7,1.6,.455,.586,0.4,0.6,.742,0.8,2.9,3.6,1.6,1.3,0.9,1.1,1.8,9.6
6,Shake Milton\miltosh01,24,47,2,24.1,5.0,11.0,.456,1.1,3.3,.333,3.9,7.7,.508,.506,2.6,3.0,.857,0.6,1.7,2.3,3.0,0.6,0.3,1.7,2.2,13.7
7,Matisse Thybulle\thybuma01,23,52,6,19.3,1.4,3.5,.410,0.7,2.1,.306,0.8,1.4,.569,.503,0.2,0.3,.571,0.5,1.4,1.9,0.9,1.5,1.0,0.4,2.0,3.7
8,Furkan Korkmaz\korkmfu01,23,44,6,19.2,3.1,7.7,.407,1.8,4.8,.373,1.3,2.9,.461,.522,1.2,1.7,.720,0.3,1.8,2.1,1.3,0.9,0.2,0.9,1.2,9.2
9,Mike Scott\scottmi01,32,36,8,17.5,1.5,4.1,.365,1.1,3.2,.342,0.4,0.9,.441,.497,0.2,0.3,.600,0.3,2.4,2.6,0.6,0.6,0.2,0.5,1.4,4.3
10,Dwight Howard\howardw01,35,54,5,17.4,2.5,4.3,.583,0.1,0.3,.250,2.4,4.0,.607,.591,1.8,3.0,.579,2.6,5.6,8.3,0.7,0.4,0.9,1.8,3.0,6.8
11,Dakota Mathias\mathida01,25,8,2,15.4,2.4,6.0,.396,1.0,3.3,.308,1.4,2.8,.500,.479,0.3,0.8,.333,0.1,0.8,0.9,1.6,0.1,0.4,0.1,0.9,6.0
12,Tony Bradley\bradlto01,23,20,8,14.4,2.6,3.8,.680,0.0,0.1,.000,2.6,3.7,.689,.680,0.4,0.6,.636,2.0,3.3,5.2,0.9,0.3,0.7,0.3,1.4,5.5
13,Tyrese Maxey\maxeyty01,20,46,6,14.1,2.9,6.5,.446,0.4,1.5,.275,2.5,5.0,.498,.478,0.7,0.8,.868,0.2,1.3,1.5,1.6,0.3,0.2,0.6,1.2,6.9
14,Isaiah Joe\joeis01,21,29,1,9.8,1.1,3.3,.337,0.9,2.6,.333,0.2,0.7,.350,.468,0.3,0.3,.889,0.2,0.8,1.0,0.6,0.3,0.1,0.2,0.9,3.3
15,Ignas Brazdeikis\brazdig01,22,1,0,8.0,0.0,3.0,.000,0.0,1.0,.000,0.0,2.0,.000,.000,0.0,0.0,,0.0,2.0,2.0,0.0,0.0,0.0,0.0,0.0,0.0
16,Paul Reed\reedpa01,21,16,0,6.8,1.3,2.8,.477,0.0,0.4,.000,1.3,2.4,.553,.477,0.1,0.3,.250,0.9,0.9,1.8,0.4,0.3,0.4,0.4,1.0,2.7
17,Vincent Poirier\poirivi01,27,10,0,3.9,0.3,1.2,.250,0.0,0.1,.000,0.3,1.1,.273,.250,0.2,0.6,.333,0.6,0.8,1.4,0.2,0.0,0.3,0.4,0.8,0.8
18,Mason Jones\jonesma05,22,4,0,3.8,1.0,1.5,.667,0.3,0.5,.500,0.8,1.0,.750,.750,0.0,0.0,,0.5,0.3,0.8,0.5,0.0,0.0,0.0,0.0,2.3
19,Terrance Ferguson\fergute01,22,13,0,3.8,0.1,0.5,.143,0.0,0.4,.000,0.1,0.2,.500,.143,0.0,0.0,,0.0,0.1,0.1,0.2,0.1,0.0,0.3,0.5,0.2
20,Rayjon Tucker\tuckera01,23,8,0,3.8,0.3,0.6,.400,0.1,0.3,.500,0.1,0.4,.333,.500,1.0,1.0,1.000,0.1,0.6,0.8,0.3,0.0,0.0,0.1,0.4,1.6
