Rk,,Age,G,GS,MP,FG,FGA,FG%,3P,3PA,3P%,2P,2PA,2P%,eFG%,FT,FTA,FT%,ORB,DRB,TRB,AST,STL,BLK,TOV,PF,PTS/G
1,Damian Lillard\lillada01,30,52,52,35.9,8.8,20.1,.440,4.1,10.8,.379,4.8,9.3,.510,.541,6.9,7.5,.925,0.5,3.7,4.2,7.7,0.9,0.3,3.2,1.6,28.7
2,CJ McCollum\mccolcj01,29,29,29,33.2,8.5,19.1,.445,3.9,9.8,.401,4.6,9.3,.491,.548,2.3,2.7,.848,0.6,3.3,3.9,4.7,1.0,0.5,1.3,1.9,23.2
3,Norman Powell\powelno01,27,10,10,32.7,5.5,12.3,.447,2.1,5.4,.389,3.4,6.9,.493,.533,3.6,4.4,.818,1.1,2.4,3.5,1.4,1.6,0.5,1.7,2.3,16.7
4,Robert Covington\covinro01,30,52,52,32.2,3.2,7.6,.413,2.1,5.4,.384,1.1,2.3,.483,.548,0.7,0.9,.809,0.8,5.8,6.6,1.7,1.6,1.3,1.1,2.8,9.1
5,Gary Trent\trentga02,22,41,23,30.8,5.3,12.8,.414,3.0,7.4,.397,2.3,5.3,.438,.530,1.4,1.8,.773,0.5,1.7,2.2,1.4,0.9,0.1,0.8,1.5,15.0
6,Enes Kanter\kanteen01,28,54,34,26.5,5.1,8.3,.608,0.0,0.0,.000,5.1,8.3,.609,.608,1.9,2.5,.784,4.3,7.5,11.9,1.3,0.5,0.7,1.3,2.6,12.1
7,Carmelo Anthony\anthoca01,36,53,3,25.1,4.8,11.5,.413,1.7,4.5,.382,3.0,7.0,.434,.489,2.1,2.4,.874,0.5,2.7,3.2,1.6,0.7,0.6,1.0,2.2,13.3
8,Derrick Jones\jonesde02,23,49,40,24.6,2.8,5.7,.489,0.9,2.6,.331,1.9,3.1,.621,.564,1.1,1.7,.634,1.5,2.5,4.0,0.8,0.7,1.0,0.6,2.3,7.5
9,Jusuf Nurkić\nurkiju01,26,20,20,22.5,3.7,7.5,.497,0.4,1.1,.333,3.4,6.4,.523,.520,1.5,2.5,.580,1.9,5.7,7.6,3.2,1.0,0.9,2.1,3.1,9.2
10,Rodney Hood\hoodro01,28,38,5,19.1,1.9,5.3,.363,0.7,2.2,.298,1.3,3.1,.410,.425,0.2,0.3,.750,0.5,1.4,1.9,1.2,0.5,0.1,0.8,1.6,4.7
11,Anfernee Simons\simonan01,21,46,0,16.0,2.6,6.4,.403,1.9,4.5,.415,0.7,1.9,.375,.549,0.7,0.8,.816,0.2,2.1,2.2,1.3,0.2,0.1,0.7,1.6,7.7
12,Nassir Little\littlna01,20,35,2,14.1,1.8,3.8,.485,0.7,1.9,.382,1.1,1.8,.594,.583,0.9,1.1,.868,0.7,2.0,2.7,0.5,0.1,0.3,0.4,1.2,5.3
13,Harry Giles\gilesha01,22,30,0,10.3,1.1,2.5,.427,0.2,0.5,.467,0.8,2.0,.417,.473,0.5,0.7,.682,1.0,3.0,3.9,0.8,0.2,0.3,0.6,1.7,2.9
14,CJ Elleby\ellebcj01,20,21,0,7.3,0.9,2.3,.388,0.3,1.3,.222,0.6,1.0,.591,.449,0.3,0.5,.636,0.4,0.7,1.0,0.2,0.3,0.1,0.1,1.0,2.4
15,Rondae Hollis-Jefferson\holliro01,26,2,0,6.0,0.5,1.0,.500,0.0,0.5,.000,0.5,0.5,1.000,.500,1.0,2.0,.500,0.0,0.5,0.5,1.5,0.5,0.0,0.5,2.5,2.0
16,Keljin Blevins\blevike01,25,10,0,5.1,0.2,1.4,.143,0.0,0.5,.000,0.2,0.9,.222,.143,0.0,0.0,,0.0,0.2,0.2,0.4,0.2,0.0,0.3,0.4,0.4
