Rk,,Age,G,GS,MP,FG,FGA,FG%,3P,3PA,3P%,2P,2PA,2P%,eFG%,FT,FTA,FT%,ORB,DRB,TRB,AST,STL,BLK,TOV,PF,PTS/G
1,Russell Westbrook\westbru01,32,47,47,35.4,8.3,18.9,.439,1.3,4.2,.306,7.0,14.7,.477,.473,4.0,6.3,.626,1.6,9.1,10.8,10.9,1.3,0.4,5.0,2.7,21.8
2,Bradley Beal\bealbr01,27,45,45,35.3,10.9,22.5,.484,2.2,6.4,.341,8.7,16.1,.541,.533,7.0,7.8,.897,1.2,3.6,4.8,4.8,1.2,0.4,3.3,2.4,31.0
3,Rui Hachimura\hachiru01,22,45,45,31.7,5.3,11.2,.475,0.8,2.5,.324,4.5,8.8,.518,.511,2.4,3.0,.774,0.9,4.9,5.8,1.5,0.8,0.1,1.3,2.2,13.8
4,Thomas Bryant\bryanth01,23,10,10,27.1,5.9,9.1,.648,0.9,2.1,.429,5.0,7.0,.714,.698,1.6,2.4,.667,1.8,4.3,6.1,1.5,0.4,0.8,1.1,3.1,14.3
5,Dāvis Bertāns\bertada01,28,41,5,24.5,3.3,8.2,.406,2.9,7.3,.400,0.4,0.9,.457,.585,1.7,1.9,.873,0.4,2.6,3.0,0.9,0.6,0.2,0.6,2.5,11.2
6,Deni Avdija\avdijde01,20,50,28,23.5,2.5,5.9,.423,1.0,3.2,.327,1.4,2.7,.537,.512,0.5,0.8,.643,0.4,4.5,4.9,1.2,0.6,0.3,0.6,2.7,6.5
7,Ish Smith\smithis01,32,26,1,20.4,2.6,6.3,.412,0.3,1.0,.346,2.3,5.3,.424,.439,0.4,0.7,.526,0.5,2.9,3.3,4.3,0.7,0.2,1.0,1.1,6.0
8,Raul Neto\netora01,28,48,8,20.1,3.1,7.0,.449,0.9,2.6,.366,2.2,4.4,.498,.516,0.9,1.1,.827,0.4,1.8,2.2,2.1,1.1,0.1,0.8,1.5,8.1
9,Robin Lopez\lopezro01,32,54,9,20.1,3.6,5.8,.627,0.1,0.3,.278,3.6,5.5,.649,.635,1.4,2.0,.700,2.1,2.0,4.1,0.9,0.3,0.6,1.1,1.7,8.8
10,Chandler Hutchison\hutchch01,24,6,0,18.7,2.2,6.0,.361,0.3,1.7,.200,1.8,4.3,.423,.389,1.2,1.5,.778,0.5,3.3,3.8,0.8,0.5,0.0,1.5,1.3,5.8
11,Garrison Mathews\mathega01,24,48,22,18.2,1.7,4.1,.423,1.4,3.4,.404,0.4,0.7,.514,.589,1.4,1.5,.892,0.3,1.2,1.5,0.5,0.5,0.1,0.2,1.8,6.2
12,Jerome Robinson\robinje01,23,17,6,17.9,1.6,5.6,.295,0.6,2.5,.262,1.0,3.1,.321,.353,0.9,1.2,.800,0.2,2.0,2.2,1.5,0.7,0.4,1.1,1.8,4.9
13,Jordan Bell\belljo01,26,3,1,16.7,1.7,5.0,.333,0.0,0.7,.000,1.7,4.3,.385,.333,0.0,0.0,,1.7,3.7,5.3,1.7,0.3,1.0,1.0,1.3,3.3
14,Alex Len\lenal01,27,39,22,16.5,3.0,4.9,.616,0.1,0.4,.235,2.9,4.4,.653,.626,1.3,2.1,.602,1.2,3.1,4.3,0.9,0.3,1.1,0.9,2.2,7.4
15,Daniel Gafford\gaffoda01,22,5,0,15.8,4.2,6.4,.656,0.0,0.0,,4.2,6.4,.656,.656,2.0,2.6,.769,1.6,3.6,5.2,0.6,1.0,1.4,1.0,0.8,10.4
16,Moritz Wagner\wagnemo01,23,25,13,15.0,2.5,4.9,.508,0.5,1.7,.310,2.0,3.2,.613,.561,1.6,2.1,.788,0.5,2.4,2.9,1.3,0.9,0.3,0.8,2.5,7.1
17,Troy Brown\browntr01,21,21,0,13.7,1.6,4.2,.371,0.7,2.2,.304,0.9,2.0,.442,.449,0.5,0.7,.667,0.5,2.4,2.9,0.9,0.1,0.2,0.8,1.4,4.3
18,Isaac Bonga\bongais01,21,33,7,11.2,0.8,2.1,.382,0.4,1.2,.308,0.4,0.9,.483,.471,0.1,0.2,.500,0.5,1.3,1.8,0.6,0.3,0.2,0.5,1.6,2.0
19,Anžejs Pasečņiks\pasecan01,25,1,0,6.0,0.0,1.0,.000,0.0,1.0,.000,0.0,0.0,,.000,0.0,0.0,,1.0,0.0,1.0,1.0,0.0,0.0,5.0,2.0,0.0
20,Cassius Winston\winstca01,22,15,0,5.7,0.7,1.7,.385,0.5,1.0,.467,0.2,0.7,.273,.519,0.3,0.4,.833,0.0,0.6,0.6,0.7,0.1,0.1,0.1,0.5,2.1
21,Anthony Gill\gillan01,28,17,1,5.4,0.4,1.2,.350,0.1,0.7,.167,0.3,0.5,.625,.400,0.2,0.3,.800,0.5,1.1,1.6,0.2,0.2,0.1,0.2,0.6,1.2
